%YAML 1.1
%TAG !u! tag:unity3d.com,2011:
--- !u!114 &11400000
MonoBehaviour:
  m_ObjectHideFlags: 0
  m_CorrespondingSourceObject: {fileID: 0}
  m_PrefabInstance: {fileID: 0}
  m_PrefabAsset: {fileID: 0}
  m_GameObject: {fileID: 0}
  m_Enabled: 1
  m_EditorHideFlags: 0
  m_Script: {fileID: 11500000, guid: 095409ab5a51f7e4f90f802371fc340b, type: 3}
  m_Name: Blue Player Prefabs
  m_EditorClassIdentifier: 
  m_PlayerColor: {r: 0, g: 0, b: 1, a: 1}
  m_BulletPrefab: {fileID: 3334349796476408105, guid: 901ab948124ab6a4380a4f709f9a6f1c, type: 3}
  m_PlayerDeathFX: {fileID: 7798381904694577990, guid: 265119d4f2ffc2a45b95c4000a5247ef, type: 3}
