%YAML 1.1
%TAG !u! tag:unity3d.com,2011:
--- !u!114 &11400000
MonoBehaviour:
  m_ObjectHideFlags: 0
  m_CorrespondingSourceObject: {fileID: 0}
  m_PrefabInstance: {fileID: 0}
  m_PrefabAsset: {fileID: 0}
  m_GameObject: {fileID: 0}
  m_Enabled: 1
  m_EditorHideFlags: 0
  m_Script: {fileID: 11500000, guid: 095409ab5a51f7e4f90f802371fc340b, type: 3}
  m_Name: Green Player Prefabs
  m_EditorClassIdentifier: 
  m_PlayerColor: {r: 0, g: 1, b: 0, a: 1}
  m_BulletPrefab: {fileID: 2930685073320921653, guid: ad27c2488399e544eb1a09c2af73a597, type: 3}
  m_PlayerDeathFX: {fileID: 6313208581567100002, guid: 3f3e108a44112cc49b6f9856efb844e3, type: 3}
