%YAML 1.1
%TAG !u! tag:unity3d.com,2011:
--- !u!1 &1031447252713315021
GameObject:
  m_ObjectHideFlags: 0
  m_CorrespondingSourceObject: {fileID: 0}
  m_PrefabInstance: {fileID: 0}
  m_PrefabAsset: {fileID: 0}
  serializedVersion: 6
  m_Component:
  - component: {fileID: 1031447252713315026}
  - component: {fileID: 1031447252713315027}
  - component: {fileID: 8983448730582749227}
  - component: {fileID: 3613565495210249424}
  m_Layer: 0
  m_Name: NetworkManager
  m_TagString: Untagged
  m_Icon: {fileID: 0}
  m_NavMeshLayer: 0
  m_StaticEditorFlags: 0
  m_IsActive: 1
--- !u!4 &1031447252713315026
Transform:
  m_ObjectHideFlags: 0
  m_CorrespondingSourceObject: {fileID: 0}
  m_PrefabInstance: {fileID: 0}
  m_PrefabAsset: {fileID: 0}
  m_GameObject: {fileID: 1031447252713315021}
  m_LocalRotation: {x: 0, y: 0, z: 0, w: 1}
  m_LocalPosition: {x: 0, y: 0, z: 0}
  m_LocalScale: {x: 1, y: 1, z: 1}
  m_Children: []
  m_Father: {fileID: 0}
  m_RootOrder: 0
  m_LocalEulerAnglesHint: {x: 0, y: 0, z: 0}
--- !u!114 &1031447252713315027
MonoBehaviour:
  m_ObjectHideFlags: 0
  m_CorrespondingSourceObject: {fileID: 0}
  m_PrefabInstance: {fileID: 0}
  m_PrefabAsset: {fileID: 0}
  m_GameObject: {fileID: 1031447252713315021}
  m_Enabled: 1
  m_EditorHideFlags: 0
  m_Script: {fileID: 11500000, guid: c1ee504420798694a9fcd33d72f88b89, type: 3}
  m_Name: 
  m_EditorClassIdentifier: 
  dontDestroyOnLoad: 1
  PersistNetworkManagerToOfflineScene: 1
  runInBackground: 1
  autoStartServerBuild: 1
  serverTickRate: 30
  offlineScene: Assets/Scenes/Scene_MainMenu_01.unity
  onlineScene: Assets/Scenes/Scene_Lobby_01.unity
  transport: {fileID: 3613565495210249424}
  networkAddress: localhost
  maxConnections: 4
  disconnectInactiveConnections: 0
  disconnectInactiveTimeout: 60
  authenticator: {fileID: 0}
  playerPrefab: {fileID: 4742337301586897471, guid: a53269ab42368b54a87ec713ef938d68, type: 3}
  autoCreatePlayer: 1
  playerSpawnMethod: 0
  spawnPrefabs:
  - {fileID: 5158152924922853118, guid: cd35e1d92dbb5984a92470f95e5881cb, type: 3}
  - {fileID: 7114228788494777999, guid: 933dc0878b2913e4eadd8c539268202f, type: 3}
  - {fileID: 3301807361556814376, guid: 19c54d8201282404592d918fcdadd656, type: 3}
  - {fileID: 6773167304583961939, guid: c0527c3d9acb91146bb931f9c2d77481, type: 3}
  - {fileID: 4562664522344996449, guid: 0c76d90ea56208143a30f11b6f3b2809, type: 3}
  - {fileID: 4562664522344996449, guid: db677bfba1128464082483f76d21e326, type: 3}
  - {fileID: 1881922578274581221, guid: 7ddf5cc8b8aaa7d4aa65fca562449ce2, type: 3}
  - {fileID: 4094747726479987444, guid: 9053d865f37732343acc60ebfe36a8d8, type: 3}
  - {fileID: 269448295094906466, guid: 89f32c3da25fc0f4a9e3d135beb219a7, type: 3}
  - {fileID: 7941037321729214316, guid: 6f0f32297a9318745a1f13905c745968, type: 3}
  - {fileID: 6998154154157790929, guid: 13be4c9511c8b454fb9b450049c7f62b, type: 3}
  - {fileID: 2693675166253086514, guid: db801c2427df3d54bb247a14aa4854f6, type: 3}
  - {fileID: 3334349796476408105, guid: 901ab948124ab6a4380a4f709f9a6f1c, type: 3}
  - {fileID: 2930685073320921653, guid: ad27c2488399e544eb1a09c2af73a597, type: 3}
  - {fileID: 7171385975854911557, guid: c7857b8704d7aac44beac760bcbe0fb7, type: 3}
  - {fileID: 4561412178742281103, guid: a740b237434857740b0d7e1df83f9b1b, type: 3}
  - {fileID: 8068373850971539339, guid: a6b176fc5afd687479b7a90942a66796, type: 3}
  - {fileID: 5427215916698729243, guid: 1a199d7dc8fa9a54897d30168902753f, type: 3}
  - {fileID: 322214948915024036, guid: 5f119dcaf0817f141a1f85ea10c97481, type: 3}
  - {fileID: 915554701569249204, guid: 26619b907dbbb4842bea09a7c19e6593, type: 3}
  - {fileID: 1650891416157467654, guid: 7626af694570a204ca7175bcfc084e4d, type: 3}
  - {fileID: 368328325747150219, guid: c69919154a28ca7429ebdac9c3680d86, type: 3}
  - {fileID: 7798381904694577990, guid: 265119d4f2ffc2a45b95c4000a5247ef, type: 3}
  - {fileID: 815843066881488254, guid: df928e3ac64f6ef42a5c1be58d398f22, type: 3}
  - {fileID: 8622001249166178549, guid: 5cb8c6d9cc2f9b04ca5f3a0b2184b04a, type: 3}
  - {fileID: 8243372048726754697, guid: 755dbdac255b7c04b848b1afd7eabd35, type: 3}
  - {fileID: 6313208581567100002, guid: 3f3e108a44112cc49b6f9856efb844e3, type: 3}
  - {fileID: 7100144273472882776, guid: e67561642578f2143b4b4414ffc12fba, type: 3}
  - {fileID: 456506068634360941, guid: 228664f3dcc28b34288246761757e69c, type: 3}
  - {fileID: 4247931079530434661, guid: 522457bb9c690f445a5294347cf4ce4f, type: 3}
  - {fileID: 8525480990650114898, guid: 75aa46bf369d82745bebdba5ca6c32ed, type: 3}
  m_minPlayers: 2
  m_menuScene: Assets/Scenes/Scene_MainMenu_01.unity
  m_lobbyScene: Assets/Scenes/Scene_Lobby_01.unity
  m_upgradeScene: Assets/Scenes/Scene_Upgrade_01.unity
  m_endScene: Assets/Scenes/Scene_EndScreen_01.unity
  m_roomPlayerPrefab: {fileID: 7837294514629481786, guid: 0c76d90ea56208143a30f11b6f3b2809, type: 3}
  m_PlayerPrefabs:
  - {fileID: 11400000, guid: ea0c7ccb10b77294a9eeeaf2f2a0a6c1, type: 2}
  - {fileID: 11400000, guid: 9ce8e3912128d014ea04841ba1c395c7, type: 2}
  - {fileID: 11400000, guid: 38d9cd1c4ff774547be389efad38dbe3, type: 2}
  - {fileID: 11400000, guid: 778ff771d3065ad41984b5caee1e65dd, type: 2}
  m_gamePlayerPrefab: {fileID: 8638055045993326399, guid: db677bfba1128464082483f76d21e326, type: 3}
  m_playerSpawnSystemPrefab: {fileID: 5158152924922853118, guid: cd35e1d92dbb5984a92470f95e5881cb, type: 3}
  m_roundSystemPrefab: {fileID: 7114228788494777999, guid: 933dc0878b2913e4eadd8c539268202f, type: 3}
  m_upgradeSystemPrefab: {fileID: 3301807361556814376, guid: 19c54d8201282404592d918fcdadd656, type: 3}
  m_playerScoreboardUIPrefab: {fileID: 6773167304583961939, guid: c0527c3d9acb91146bb931f9c2d77481, type: 3}
  m_HighestScore: 0
  m_LeadingPlayer: 
  m_maxNumberOfRounds: 1000
  m_mapSet: {fileID: 11400000, guid: b374c3139c6016f4ea899012eb532c88, type: 2}
  m_UpgradeSets:
  - {fileID: 11400000, guid: adf37123586e87144aa4a1ada66cac7d, type: 2}
  - {fileID: 11400000, guid: a974f24bb92507e4cb5c773f697445a6, type: 2}
  - {fileID: 11400000, guid: 32a2efd37ad3a5248ae8f74839e8f117, type: 2}
--- !u!114 &8983448730582749227
MonoBehaviour:
  m_ObjectHideFlags: 0
  m_CorrespondingSourceObject: {fileID: 0}
  m_PrefabInstance: {fileID: 0}
  m_PrefabAsset: {fileID: 0}
  m_GameObject: {fileID: 1031447252713315021}
  m_Enabled: 1
  m_EditorHideFlags: 0
  m_Script: {fileID: 11500000, guid: ef4bffeda13d7a748973ff9204401c07, type: 3}
  m_Name: 
  m_EditorClassIdentifier: 
--- !u!114 &3613565495210249424
MonoBehaviour:
  m_ObjectHideFlags: 0
  m_CorrespondingSourceObject: {fileID: 0}
  m_PrefabInstance: {fileID: 0}
  m_PrefabAsset: {fileID: 0}
  m_GameObject: {fileID: 1031447252713315021}
  m_Enabled: 1
  m_EditorHideFlags: 0
  m_Script: {fileID: 11500000, guid: ea368fb6f27ec2f40a40e20977992b9c, type: 3}
  m_Name: 
  m_EditorClassIdentifier: 
  Channels: 0200000001000000
  Timeout: 25
  SteamAppID: 480
  AllowSteamRelay: 1
  UseNextGenSteamNetworking: 1
  SteamUserID: 0
