%YAML 1.1
%TAG !u! tag:unity3d.com,2011:
--- !u!114 &11400000
MonoBehaviour:
  m_ObjectHideFlags: 0
  m_CorrespondingSourceObject: {fileID: 0}
  m_PrefabInstance: {fileID: 0}
  m_PrefabAsset: {fileID: 0}
  m_GameObject: {fileID: 0}
  m_Enabled: 1
  m_EditorHideFlags: 0
  m_Script: {fileID: 11500000, guid: dffd256df7b380446b55ae8b0bb82358, type: 3}
  m_Name: 03_Ammo Boost
  m_EditorClassIdentifier: 
  m_UpgradeID: 3
  m_UpgradeName: Ammo Boost
  m_UpgradeIcon: {fileID: 21300000, guid: a9de393ab6e2d9442b4e1245993dc3de, type: 3}
  m_DisplayUpgradeInfos: 1
  m_AlternativeUpgradeInfos: 
  m_IsBodyModel: 0
  m_UpgradeModel: {fileID: 5899346161852286565, guid: 131b5cf19896ca344b6d8e4ba40e2b6a, type: 3}
  m_Health: 0
  m_HealthMultiply: 0
  m_HealthRegen: 0
  m_JumpSpeed: 0
  m_JumpSpeedMultiply: 0
  m_Jumps: 0
  m_MovementSpeed: 0
  m_MovementSpeedMultiply: 0
  m_Damage: 0
  m_DamageMultiply: 0
  m_SplashDamage: 0
  m_SplashRadius: 0
  m_Bullets: 1
  m_BulletsMultiply: 0
  m_BulletSpeed: 0
  m_BulletSpeedMultiply: 0
  m_BulletMass: 0
  m_ReloadSpeed: 0
  m_ReloadMultiply: 0
  m_AttackSpeed: 0
  m_AttackSpeedMultiply: 0
  m_BulletGravity: 1
