%YAML 1.1
%TAG !u! tag:unity3d.com,2011:
--- !u!114 &11400000
MonoBehaviour:
  m_ObjectHideFlags: 0
  m_CorrespondingSourceObject: {fileID: 0}
  m_PrefabInstance: {fileID: 0}
  m_PrefabAsset: {fileID: 0}
  m_GameObject: {fileID: 0}
  m_Enabled: 1
  m_EditorHideFlags: 0
  m_Script: {fileID: 11500000, guid: dffd256df7b380446b55ae8b0bb82358, type: 3}
  m_Name: 05_Attack Speed Boost
  m_EditorClassIdentifier: 
  m_UpgradeID: 5
  m_UpgradeName: Attack Speed Boost
  m_UpgradeIcon: {fileID: 21300000, guid: 2023bc188780ba04791dc466fbe6679f, type: 3}
  m_DisplayUpgradeInfos: 1
  m_AlternativeUpgradeInfos: 
  m_IsBodyModel: 1
  m_UpgradeModel: {fileID: 2129325321194515819, guid: 269b21182ce412f49b1611b9b5f3fd5e, type: 3}
  m_Health: 0
  m_HealthMultiply: 0
  m_HealthRegen: 0
  m_JumpSpeed: 0
  m_JumpSpeedMultiply: 0
  m_Jumps: 0
  m_MovementSpeed: 0
  m_MovementSpeedMultiply: 0
  m_Damage: 0
  m_DamageMultiply: 0
  m_SplashDamage: 0
  m_SplashRadius: 0
  m_Bullets: 0
  m_BulletsMultiply: 0
  m_BulletSpeed: 0
  m_BulletSpeedMultiply: 0
  m_BulletMass: 0
  m_ReloadSpeed: 0
  m_ReloadMultiply: 0
  m_AttackSpeed: -0.05
  m_AttackSpeedMultiply: 0
  m_BulletGravity: 1
