%YAML 1.1
%TAG !u! tag:unity3d.com,2011:
--- !u!114 &11400000
MonoBehaviour:
  m_ObjectHideFlags: 0
  m_CorrespondingSourceObject: {fileID: 0}
  m_PrefabInstance: {fileID: 0}
  m_PrefabAsset: {fileID: 0}
  m_GameObject: {fileID: 0}
  m_Enabled: 1
  m_EditorHideFlags: 0
  m_Script: {fileID: 11500000, guid: 0f7263260a4da07478f57471efde4bcd, type: 3}
  m_Name: Level3UpgradeSet
  m_EditorClassIdentifier: 
  m_requiredScore: 4
  m_Upgrades:
  - {fileID: 11400000, guid: f356b51ff04854a43a73fa0eeda4a87e, type: 2}
  - {fileID: 11400000, guid: b29e99522f610854cbaccb311e3ec971, type: 2}
  - {fileID: 11400000, guid: 80b17fe6d8f7d7b4786d4f46845eb570, type: 2}
  - {fileID: 11400000, guid: 84901ce4b36e6fa41840010ba78e48b4, type: 2}
  - {fileID: 11400000, guid: a00503bb4b878794c8019ea16cf36f8b, type: 2}
  - {fileID: 11400000, guid: c09ab4bec9b69a94e8ed7b13f29ccad0, type: 2}
  - {fileID: 11400000, guid: 9f09276ca37a3f2498987eba786a669d, type: 2}
