%YAML 1.1
%TAG !u! tag:unity3d.com,2011:
--- !u!114 &11400000
MonoBehaviour:
  m_ObjectHideFlags: 0
  m_CorrespondingSourceObject: {fileID: 0}
  m_PrefabInstance: {fileID: 0}
  m_PrefabAsset: {fileID: 0}
  m_GameObject: {fileID: 0}
  m_Enabled: 1
  m_EditorHideFlags: 0
  m_Script: {fileID: 11500000, guid: 0f7263260a4da07478f57471efde4bcd, type: 3}
  m_Name: Level1UpgradeSet
  m_EditorClassIdentifier: 
  m_requiredScore: 0
  m_Upgrades:
  - {fileID: 11400000, guid: 0c63b6d02e41abe48b978c37bcec709b, type: 2}
  - {fileID: 11400000, guid: 6b1f90e0700a706438c8af08c8b3b0cd, type: 2}
  - {fileID: 11400000, guid: 514b05a472d7e5941a7905d63cc2a9df, type: 2}
  - {fileID: 11400000, guid: e86255cd205d4924da3dbd566b59f969, type: 2}
  - {fileID: 11400000, guid: ceeb8582456879a4fa2cb51251d2fef2, type: 2}
  - {fileID: 11400000, guid: d817659869c088a439d65d072129d1fb, type: 2}
  - {fileID: 11400000, guid: f19e096ecb8ddb648811a49d5c19745e, type: 2}
